Engine/Binaries/Win64/UnrealGame.pdb	2022-07-07T01:27:08.854Z
Engine/Binaries/ThirdParty/PhysX3/Win64/VS2015/PhysX3CommonPROFILE_x64.pdb	2022-07-07T01:26:25.093Z
Engine/Binaries/ThirdParty/PhysX3/Win64/VS2015/PhysX3CookingPROFILE_x64.pdb	2022-07-07T01:26:25.128Z
Engine/Binaries/ThirdParty/PhysX3/Win64/VS2015/PhysX3PROFILE_x64.pdb	2022-07-07T01:26:25.599Z
Engine/Binaries/ThirdParty/PhysX3/Win64/VS2015/PxFoundationPROFILE_x64.pdb	2022-07-07T01:26:25.607Z
Engine/Binaries/ThirdParty/PhysX3/Win64/VS2015/PxPvdSDKPROFILE_x64.pdb	2022-07-07T01:26:25.622Z
Engine/Content/SlateDebug/Fonts/LastResort.tps	2022-07-07T01:28:23.817Z
Engine/Content/SlateDebug/Fonts/LastResort.ttf	2022-07-07T01:28:24.168Z
Engine/Extras/GPUDumpViewer/GPUDumpViewer.html	2022-07-07T01:29:25.337Z
Engine/Extras/GPUDumpViewer/OpenGPUDumpViewer.bat	2022-07-07T01:29:25.339Z
Engine/Extras/GPUDumpViewer/OpenGPUDumpViewer.sh	2022-07-07T01:29:25.341Z
